%YAML 1.1
%TAG !u! tag:unity3d.com,2011:
--- !u!114 &11400000
MonoBehaviour:
  m_ObjectHideFlags: 0
  m_CorrespondingSourceObject: {fileID: 0}
  m_PrefabInstance: {fileID: 0}
  m_PrefabAsset: {fileID: 0}
  m_GameObject: {fileID: 0}
  m_Enabled: 1
  m_EditorHideFlags: 0
  m_Script: {fileID: 11500000, guid: d3ba44e3fe20b1644ac0178ccb5aec7e, type: 3}
  m_Name: TargetConfig
  m_EditorClassIdentifier: 
  _id: target_config
  _prefab: {fileID: 5593724215283182200, guid: 700422ee38182a04491020cd714b6323, type: 3}
